Predizendo Se vai chover Amanhã na Australia
…
Predizendo Se vai chover Amanhã na Australia

FALAR DOS FOGOS E COMO PREDIZER PODE SER IMPORTANTE PRA REMANEJAR OS ESFORCOS OU SABER SE UM FOCO DE INCENDIO PODE SURGIR

dataset = tibble(read.csv('weatherAUS.csv'))
print(dataset)

## # A tibble: 145,460 x 23
##    Date       Location MinTemp MaxTemp Rainfall Evaporation Sunshine WindGustDir
##    <chr>      <chr>      <dbl>   <dbl>    <dbl>       <dbl>    <dbl> <chr>      
##  1 2008-12-01 Albury      13.4    22.9      0.6          NA       NA W          
##  2 2008-12-02 Albury       7.4    25.1      0            NA       NA WNW        
##  3 2008-12-03 Albury      12.9    25.7      0            NA       NA WSW        
##  4 2008-12-04 Albury       9.2    28        0            NA       NA NE         
##  5 2008-12-05 Albury      17.5    32.3      1            NA       NA W          
##  6 2008-12-06 Albury      14.6    29.7      0.2          NA       NA WNW        
##  7 2008-12-07 Albury      14.3    25        0            NA       NA W          
##  8 2008-12-08 Albury       7.7    26.7      0            NA       NA W          
##  9 2008-12-09 Albury       9.7    31.9      0            NA       NA NNW        
## 10 2008-12-10 Albury      13.1    30.1      1.4          NA       NA W          
## # ... with 145,450 more rows, and 15 more variables: WindGustSpeed <int>,
## #   WindDir9am <chr>, WindDir3pm <chr>, WindSpeed9am <int>, WindSpeed3pm <int>,
## #   Humidity9am <int>, Humidity3pm <int>, Pressure9am <dbl>, Pressure3pm <dbl>,
## #   Cloud9am <int>, Cloud3pm <int>, Temp9am <dbl>, Temp3pm <dbl>,
## #   RainToday <chr>, RainTomorrow <chr>
…
Rcities_df <- as.data.frame(RainLocation)
Rlocations_df <- mutate_geocode(Rcities_df, Category)
Rlocations <- as_tibble(Rlocations_df)

Rlocations_sf <- st_as_sf(Rlocations, coords = c("lon", "lat"), crs = 4326)
print(Rlocations_sf)

## Simple feature collection with 49 features and 2 fields
## Geometry type: POINT
## Dimension:     XY
## Bounding box:  xmin: 115.1003 ymin: -42.88261 xmax: 167.9547 ymax: -12.46373
## Geodetic CRS:  WGS 84
## # A tibble: 49 x 3
##    Category                       x             geometry
##  * <chr>                      <dbl>          <POINT [°]>
##  1 Adelaide , Australia       4842.  (138.6007 -34.9285)
##  2 Albany , Australia         6828. (117.8837 -35.02693)
##  3 Albury , Australia         5763. (146.9095 -36.07512)
##  4 AliceSprings , Australia   2677. (133.8807 -23.69804)
##  5 BadgerysCreek , Australia  6421.  (150.7634 -33.8751)
##  6 Ballarat , Australia       5269. (143.8503 -37.56216)
##  7 Bendigo , Australia        4913. (144.2794 -36.75702)
##  8 Brisbane , Australia       9941   (153.026 -27.47045)
##  9 Cairns , Australia        17157.  (145.771 -16.92035)
## 10 Canberra , Australia       5953.   (149.13 -35.28094)
## # ... with 39 more rows
…
